^C:\LOCAL_TEST\TA\OOP\WINDOWS_FOR_VS\WINDOWS_FOR_VS\LAB2\X64\RELEASE\BASIC.OBJ|C:\LOCAL_TEST\TA\OOP\WINDOWS_FOR_VS\WINDOWS_FOR_VS\LAB2\X64\RELEASE\ERROR.OBJ|C:\LOCAL_TEST\TA\OOP\WINDOWS_FOR_VS\WINDOWS_FOR_VS\LAB2\X64\RELEASE\EVALSTATE.OBJ|C:\LOCAL_TEST\TA\OOP\WINDOWS_FOR_VS\WINDOWS_FOR_VS\LAB2\X64\RELEASE\EXP.OBJ|C:\LOCAL_TEST\TA\OOP\WINDOWS_FOR_VS\WINDOWS_FOR_VS\LAB2\X64\RELEASE\LEXICON.OBJ|C:\LOCAL_TEST\TA\OOP\WINDOWS_FOR_VS\WINDOWS_FOR_VS\LAB2\X64\RELEASE\PARSER.OBJ|C:\LOCAL_TEST\TA\OOP\WINDOWS_FOR_VS\WINDOWS_FOR_VS\LAB2\X64\RELEASE\PROGRAM.OBJ|C:\LOCAL_TEST\TA\OOP\WINDOWS_FOR_VS\WINDOWS_FOR_VS\LAB2\X64\RELEASE\SIMPIO.OBJ|C:\LOCAL_TEST\TA\OOP\WINDOWS_FOR_VS\WINDOWS_FOR_VS\LAB2\X64\RELEASE\STATEMENT.OBJ|C:\LOCAL_TEST\TA\OOP\WINDOWS_FOR_VS\WINDOWS_FOR_VS\LAB2\X64\RELEASE\STRLIB.OBJ|C:\LOCAL_TEST\TA\OOP\WINDOWS_FOR_VS\WINDOWS_FOR_VS\LAB2\X64\RELEASE\TOKENSCANNER.OBJ
/OUT:"C:\LOCAL_TEST\TA\OOP\WINDOWS_FOR_VS\WINDOWS_FOR_VS\X64\RELEASE\BASIC.EXE" /NOLOGO KERNEL32.LIB USER32.LIB GDI32.LIB WINSPOOL.LIB COMDLG32.LIB ADVAPI32.LIB SHELL32.LIB OLE32.LIB OLEAUT32.LIB UUID.LIB ODBC32.LIB ODBCCP32.LIB /MANIFEST /MANIFESTUAC:"level='asInvoker' uiAccess='false'" /manifest:embed /DEBUG:FULL /PDB:"C:\LOCAL_TEST\TA\OOP\WINDOWS_FOR_VS\WINDOWS_FOR_VS\X64\RELEASE\BASIC.PDB" /OPT:REF /OPT:ICF /LTCG:incremental /TLBID:1 /DYNAMICBASE /NXCOMPAT /IMPLIB:"C:\LOCAL_TEST\TA\OOP\WINDOWS_FOR_VS\WINDOWS_FOR_VS\X64\RELEASE\BASIC.LIB" /MACHINE:X64 X64\RELEASE\BASIC.OBJX64\RELEASE\EVALSTATE.OBJX64\RELEASE\EXP.OBJX64\RELEASE\PARSER.OBJX64\RELEASE\PROGRAM.OBJX64\RELEASE\STATEMENT.OBJX64\RELEASE\ERROR.OBJX64\RELEASE\LEXICON.OBJX64\RELEASE\SIMPIO.OBJX64\RELEASE\STRLIB.OBJX64\RELEASE\TOKENSCANNER.OBJ
^C:\USERS\DELL\DESKTOP\OOP2-BASIC\BASIC\WINDOWS_FOR_VS\LAB2\X64\RELEASE\BASIC.OBJ|C:\USERS\DELL\DESKTOP\OOP2-BASIC\BASIC\WINDOWS_FOR_VS\LAB2\X64\RELEASE\ERROR.OBJ|C:\USERS\DELL\DESKTOP\OOP2-BASIC\BASIC\WINDOWS_FOR_VS\LAB2\X64\RELEASE\EVALSTATE.OBJ|C:\USERS\DELL\DESKTOP\OOP2-BASIC\BASIC\WINDOWS_FOR_VS\LAB2\X64\RELEASE\EXP.OBJ|C:\USERS\DELL\DESKTOP\OOP2-BASIC\BASIC\WINDOWS_FOR_VS\LAB2\X64\RELEASE\LEXICON.OBJ|C:\USERS\DELL\DESKTOP\OOP2-BASIC\BASIC\WINDOWS_FOR_VS\LAB2\X64\RELEASE\PARSER.OBJ|C:\USERS\DELL\DESKTOP\OOP2-BASIC\BASIC\WINDOWS_FOR_VS\LAB2\X64\RELEASE\PROGRAM.OBJ|C:\USERS\DELL\DESKTOP\OOP2-BASIC\BASIC\WINDOWS_FOR_VS\LAB2\X64\RELEASE\SIMPIO.OBJ|C:\USERS\DELL\DESKTOP\OOP2-BASIC\BASIC\WINDOWS_FOR_VS\LAB2\X64\RELEASE\STATEMENT.OBJ|C:\USERS\DELL\DESKTOP\OOP2-BASIC\BASIC\WINDOWS_FOR_VS\LAB2\X64\RELEASE\STRLIB.OBJ|C:\USERS\DELL\DESKTOP\OOP2-BASIC\BASIC\WINDOWS_FOR_VS\LAB2\X64\RELEASE\TOKENSCANNER.OBJ
/OUT:"C:\USERS\DELL\DESKTOP\OOP2-BASIC\BASIC\WINDOWS_FOR_VS\X64\RELEASE\BASIC.EXE" /NOLOGO KERNEL32.LIB USER32.LIB GDI32.LIB WINSPOOL.LIB COMDLG32.LIB ADVAPI32.LIB SHELL32.LIB OLE32.LIB OLEAUT32.LIB UUID.LIB ODBC32.LIB ODBCCP32.LIB /MANIFEST /MANIFESTUAC:"level='asInvoker' uiAccess='false'" /manifest:embed /DEBUG:FULL /PDB:"C:\USERS\DELL\DESKTOP\OOP2-BASIC\BASIC\WINDOWS_FOR_VS\X64\RELEASE\BASIC.PDB" /OPT:REF /OPT:ICF /LTCG:incremental /TLBID:1 /DYNAMICBASE /NXCOMPAT /IMPLIB:"C:\USERS\DELL\DESKTOP\OOP2-BASIC\BASIC\WINDOWS_FOR_VS\X64\RELEASE\BASIC.LIB" /MACHINE:X64 X64\RELEASE\BASIC.OBJX64\RELEASE\EVALSTATE.OBJX64\RELEASE\EXP.OBJX64\RELEASE\PARSER.OBJX64\RELEASE\PROGRAM.OBJX64\RELEASE\STATEMENT.OBJX64\RELEASE\ERROR.OBJX64\RELEASE\LEXICON.OBJX64\RELEASE\SIMPIO.OBJX64\RELEASE\STRLIB.OBJX64\RELEASE\TOKENSCANNER.OBJ
