^C:\USERS\DELL\DESKTOP\OOP2-BASIC\BASIC\WINDOWS_FOR_VS\LAB2\BASIC\BASIC.CPP|C:\USERS\DELL\DESKTOP\OOP2-BASIC\BASIC\WINDOWS_FOR_VS\LAB2\BASIC\EVALSTATE.CPP|C:\USERS\DELL\DESKTOP\OOP2-BASIC\BASIC\WINDOWS_FOR_VS\LAB2\BASIC\EXP.CPP|C:\USERS\DELL\DESKTOP\OOP2-BASIC\BASIC\WINDOWS_FOR_VS\LAB2\BASIC\PARSER.CPP|C:\USERS\DELL\DESKTOP\OOP2-BASIC\BASIC\WINDOWS_FOR_VS\LAB2\BASIC\PROGRAM.CPP|C:\USERS\DELL\DESKTOP\OOP2-BASIC\BASIC\WINDOWS_FOR_VS\LAB2\BASIC\STATEMENT.CPP|C:\USERS\DELL\DESKTOP\OOP2-BASIC\BASIC\WINDOWS_FOR_VS\LAB2\STANFORDCPPLIB\ERROR.CPP|C:\USERS\DELL\DESKTOP\OOP2-BASIC\BASIC\WINDOWS_FOR_VS\LAB2\STANFORDCPPLIB\LEXICON.CPP|C:\USERS\DELL\DESKTOP\OOP2-BASIC\BASIC\WINDOWS_FOR_VS\LAB2\STANFORDCPPLIB\SIMPIO.CPP|C:\USERS\DELL\DESKTOP\OOP2-BASIC\BASIC\WINDOWS_FOR_VS\LAB2\STANFORDCPPLIB\STRLIB.CPP|C:\USERS\DELL\DESKTOP\OOP2-BASIC\BASIC\WINDOWS_FOR_VS\LAB2\STANFORDCPPLIB\TOKENSCANNER.CPP
C:\USERS\DELL\DESKTOP\OOP2-BASIC\BASIC\WINDOWS_FOR_VS\LAB2\DEBUG\VC141.PDB
C:\USERS\DELL\DESKTOP\OOP2-BASIC\BASIC\WINDOWS_FOR_VS\LAB2\DEBUG\VC141.IDB
C:\USERS\DELL\DESKTOP\OOP2-BASIC\BASIC\WINDOWS_FOR_VS\LAB2\DEBUG\EVALSTATE.OBJ
C:\USERS\DELL\DESKTOP\OOP2-BASIC\BASIC\WINDOWS_FOR_VS\LAB2\DEBUG\EXP.OBJ
C:\USERS\DELL\DESKTOP\OOP2-BASIC\BASIC\WINDOWS_FOR_VS\LAB2\DEBUG\PARSER.OBJ
C:\USERS\DELL\DESKTOP\OOP2-BASIC\BASIC\WINDOWS_FOR_VS\LAB2\DEBUG\STATEMENT.OBJ
C:\USERS\DELL\DESKTOP\OOP2-BASIC\BASIC\WINDOWS_FOR_VS\LAB2\DEBUG\ERROR.OBJ
C:\USERS\DELL\DESKTOP\OOP2-BASIC\BASIC\WINDOWS_FOR_VS\LAB2\DEBUG\LEXICON.OBJ
C:\USERS\DELL\DESKTOP\OOP2-BASIC\BASIC\WINDOWS_FOR_VS\LAB2\DEBUG\SIMPIO.OBJ
C:\USERS\DELL\DESKTOP\OOP2-BASIC\BASIC\WINDOWS_FOR_VS\LAB2\DEBUG\STRLIB.OBJ
C:\USERS\DELL\DESKTOP\OOP2-BASIC\BASIC\WINDOWS_FOR_VS\LAB2\DEBUG\TOKENSCANNER.OBJ
^C:\USERS\DELL\DESKTOP\OOP2-BASIC\BASIC\WINDOWS_FOR_VS\LAB2\BASIC\BASIC.CPP
C:\USERS\DELL\DESKTOP\OOP2-BASIC\BASIC\WINDOWS_FOR_VS\LAB2\DEBUG\VC141.PDB
^C:\USERS\DELL\DESKTOP\OOP2-BASIC\BASIC\WINDOWS_FOR_VS\LAB2\BASIC\EVALSTATE.CPP
C:\USERS\DELL\DESKTOP\OOP2-BASIC\BASIC\WINDOWS_FOR_VS\LAB2\DEBUG\VC141.PDB
^C:\USERS\DELL\DESKTOP\OOP2-BASIC\BASIC\WINDOWS_FOR_VS\LAB2\BASIC\EXP.CPP
C:\USERS\DELL\DESKTOP\OOP2-BASIC\BASIC\WINDOWS_FOR_VS\LAB2\DEBUG\VC141.PDB
^C:\USERS\DELL\DESKTOP\OOP2-BASIC\BASIC\WINDOWS_FOR_VS\LAB2\BASIC\PARSER.CPP
C:\USERS\DELL\DESKTOP\OOP2-BASIC\BASIC\WINDOWS_FOR_VS\LAB2\DEBUG\VC141.PDB
^C:\USERS\DELL\DESKTOP\OOP2-BASIC\BASIC\WINDOWS_FOR_VS\LAB2\BASIC\PROGRAM.CPP
C:\USERS\DELL\DESKTOP\OOP2-BASIC\BASIC\WINDOWS_FOR_VS\LAB2\DEBUG\VC141.PDB
^C:\USERS\DELL\DESKTOP\OOP2-BASIC\BASIC\WINDOWS_FOR_VS\LAB2\BASIC\STATEMENT.CPP
C:\USERS\DELL\DESKTOP\OOP2-BASIC\BASIC\WINDOWS_FOR_VS\LAB2\DEBUG\VC141.PDB
^C:\USERS\DELL\DESKTOP\OOP2-BASIC\BASIC\WINDOWS_FOR_VS\LAB2\STANFORDCPPLIB\ERROR.CPP
C:\USERS\DELL\DESKTOP\OOP2-BASIC\BASIC\WINDOWS_FOR_VS\LAB2\DEBUG\VC141.PDB
^C:\USERS\DELL\DESKTOP\OOP2-BASIC\BASIC\WINDOWS_FOR_VS\LAB2\STANFORDCPPLIB\LEXICON.CPP
C:\USERS\DELL\DESKTOP\OOP2-BASIC\BASIC\WINDOWS_FOR_VS\LAB2\DEBUG\VC141.PDB
^C:\USERS\DELL\DESKTOP\OOP2-BASIC\BASIC\WINDOWS_FOR_VS\LAB2\STANFORDCPPLIB\SIMPIO.CPP
C:\USERS\DELL\DESKTOP\OOP2-BASIC\BASIC\WINDOWS_FOR_VS\LAB2\DEBUG\VC141.PDB
^C:\USERS\DELL\DESKTOP\OOP2-BASIC\BASIC\WINDOWS_FOR_VS\LAB2\STANFORDCPPLIB\STRLIB.CPP
C:\USERS\DELL\DESKTOP\OOP2-BASIC\BASIC\WINDOWS_FOR_VS\LAB2\DEBUG\VC141.PDB
^C:\USERS\DELL\DESKTOP\OOP2-BASIC\BASIC\WINDOWS_FOR_VS\LAB2\STANFORDCPPLIB\TOKENSCANNER.CPP
C:\USERS\DELL\DESKTOP\OOP2-BASIC\BASIC\WINDOWS_FOR_VS\LAB2\DEBUG\VC141.PDB
